Pacote de uso interno do laboratório Nupgen DBC/Nupélia • nupgen
…
Depois, utilize esse vetor dentro da função ptp_results()

ptp_results(vetor_ptp)
#> # A tibble: 39 x 2
#>    label                                               species
#>    <chr>                                               <chr>  
#>  1 MZ051026_Characidium_pellucidum_voucher_SU08-1290   1      
#>  2 MZ051108_Characidium_pellucidum_voucher_SU08-1290_4 1      
#>  3 MZ051140_Characidium_pellucidum_voucher_SU08-1290_3 1      
#>  4 MG936837_Characidium_marshi_voucher_stri-3611       2      
#>  5 MG936835_Characidium_marshi_voucher_stri-11821      2      
#>  6 MG936836_Characidium_marshi_voucher_stri-4069       2      
#>  7 MG936834_Characidium_marshi_voucher_stri-6730       2      
#>  8 KU288836_Characidium_rachovii_voucher_MG_ZV-P_172-2 3      
#>  9 JX111702_Characidium_rachovii_voucher_UNMDP-T_0289  3      
#> 10 KU288852_Characidium_rachovii_voucher_MG_ZV-P_172-3 3      
#> # ... with 29 more rows
…
